<?xml version="1.0" encoding="UTF-8" standalone="no"?>
<!-- Created with Inkscape (http://www.inkscape.org/) -->

<svg
   xmlns:dc="http://purl.org/dc/elements/1.1/"
   xmlns:cc="http://creativecommons.org/ns#"
   xmlns:rdf="http://www.w3.org/1999/02/22-rdf-syntax-ns#"
   xmlns:svg="http://www.w3.org/2000/svg"
   xmlns="http://www.w3.org/2000/svg"
   xmlns:sodipodi="http://sodipodi.sourceforge.net/DTD/sodipodi-0.dtd"
   xmlns:inkscape="http://www.inkscape.org/namespaces/inkscape"
   width="387.1077mm"
   height="279.62109mm"
   viewBox="0 0 387.1077 279.62109"
   version="1.1"
   id="svg8"
   inkscape:version="0.92.1 r15371"
   sodipodi:docname="OH-license-comparison.svg"
   inkscape:export-filename="/home/fido/Desktop/opensource-def-comparsion.svg.png"
   inkscape:export-xdpi="96"
   inkscape:export-ydpi="96">
  <defs
     id="defs2" />
  <sodipodi:namedview
     id="base"
     pagecolor="#ffffff"
     bordercolor="#666666"
     borderopacity="1.0"
     inkscape:pageopacity="0.0"
     inkscape:pageshadow="2"
     inkscape:zoom="0.58"
     inkscape:cx="987.41295"
     inkscape:cy="505.62565"
     inkscape:document-units="mm"
     inkscape:current-layer="layer1"
     showgrid="false"
     showguides="true"
     inkscape:guide-bbox="true"
     inkscape:window-width="1920"
     inkscape:window-height="1015"
     inkscape:window-x="0"
     inkscape:window-y="0"
     inkscape:window-maximized="1"
     fit-margin-top="0"
     fit-margin-left="0"
     fit-margin-right="0"
     fit-margin-bottom="0">
    <sodipodi:guide
       position="311.89583,493.64539"
       orientation="0,1"
       id="guide3714"
       inkscape:locked="false" />
    <sodipodi:guide
       position="224.32738,250.68421"
       orientation="0,1"
       id="guide811"
       inkscape:locked="false" />
    <sodipodi:guide
       position="386.92751,175.70356"
       orientation="1,0"
       id="guide813"
       inkscape:locked="false" />
    <sodipodi:guide
       position="-7.9174471e-07,194.53455"
       orientation="1,0"
       id="guide815"
       inkscape:locked="false" />
    <sodipodi:guide
       position="206.74569,6.771522e-06"
       orientation="0,1"
       id="guide817"
       inkscape:locked="false" />
  </sodipodi:namedview>
  <metadata
     id="metadata5">
    <rdf:RDF>
      <cc:Work
         rdf:about="">
        <dc:format>image/svg+xml</dc:format>
        <dc:type
           rdf:resource="http://purl.org/dc/dcmitype/StillImage" />
        <dc:title></dc:title>
      </cc:Work>
    </rdf:RDF>
  </metadata>
  <g
     inkscape:label="Layer 1"
     inkscape:groupmode="layer"
     id="layer1"
     transform="translate(86.303711,-80.728226)">
    <rect
       style="fill:#cccccc;stroke-width:0.36980438"
       id="rect3827-4-9-3-7-5"
       width="48.361214"
       height="279.47955"
       x="252.44276"
       y="80.869751"
       inkscape:export-xdpi="300"
       inkscape:export-ydpi="300" />
    <rect
       style="fill:#f4d7d7;stroke-width:0.33299279"
       id="rect3827-4-9-3-5"
       width="39.192486"
       height="279.62106"
       x="210.61781"
       y="80.728226"
       inkscape:export-xdpi="300"
       inkscape:export-ydpi="300" />
    <rect
       style="fill:#cccccc;stroke-width:0.36989802"
       id="rect3827-4-9-3-7"
       width="48.361214"
       height="279.62106"
       x="159.61079"
       y="80.728226"
       inkscape:export-xdpi="300"
       inkscape:export-ydpi="300" />
    <rect
       style="fill:#f4d7d7;stroke-width:0.41252446"
       id="rect3827-4-9-3"
       width="60.149582"
       height="279.62103"
       x="96.815407"
       y="80.728287"
       inkscape:export-xdpi="300"
       inkscape:export-ydpi="300" />
    <rect
       style="fill:#fff6d5;stroke-width:0.20486346"
       id="rect3827-4-6-9-2-0-3-0-2-1"
       width="386.92749"
       height="10.720189"
       x="-86.303711"
       y="341.47684"
       inkscape:export-xdpi="300"
       inkscape:export-ydpi="300" />
    <rect
       style="fill:#ececec;stroke-width:0.20486343"
       id="rect3827-4-9-6-2-1-7-9-6-6-6"
       width="386.92749"
       height="10.720189"
       x="-86.303711"
       y="328.35474"
       inkscape:export-xdpi="300"
       inkscape:export-ydpi="300" />
    <rect
       style="fill:#fff6d5;stroke-width:0.20486346"
       id="rect3827-4-6-9-2-0-3-0-2"
       width="386.92749"
       height="10.720189"
       x="-86.303711"
       y="314.98868"
       inkscape:export-xdpi="300"
       inkscape:export-ydpi="300" />
    <rect
       style="fill:#ececec;stroke-width:0.20486343"
       id="rect3827-4-9-6-2-1-7-9-6-6"
       width="386.92749"
       height="10.720189"
       x="-86.303711"
       y="301.55356"
       inkscape:export-xdpi="300"
       inkscape:export-ydpi="300" />
    <rect
       style="fill:#fff6d5;stroke-width:0.20486346"
       id="rect3827-4-6-9-2-0-3-0"
       width="386.92749"
       height="10.720189"
       x="-86.303711"
       y="288.71667"
       inkscape:export-xdpi="300"
       inkscape:export-ydpi="300" />
    <rect
       style="fill:#ececec;stroke-width:0.20486343"
       id="rect3827-4-9-6-2-1-7-9-6"
       width="386.92749"
       height="10.720189"
       x="-86.303711"
       y="275.09521"
       inkscape:export-xdpi="300"
       inkscape:export-ydpi="300" />
    <rect
       style="fill:#fff6d5;stroke-width:0.20486346"
       id="rect3827-4-6-9-2-0-3"
       width="386.92749"
       height="10.720189"
       x="-86.303711"
       y="261.72916"
       inkscape:export-xdpi="300"
       inkscape:export-ydpi="300" />
    <rect
       style="fill:#ececec;stroke-width:0.20486343"
       id="rect3827-4-9-6-2-1-7-9"
       width="386.92749"
       height="10.720189"
       x="-86.303711"
       y="248.66667"
       inkscape:export-xdpi="300"
       inkscape:export-ydpi="300" />
    <rect
       style="fill:#fff6d5;stroke-width:0.20486346"
       id="rect3827-4-6-9-2-0"
       width="386.92749"
       height="10.720189"
       x="-86.303711"
       y="235.82985"
       inkscape:export-xdpi="300"
       inkscape:export-ydpi="300" />
    <rect
       style="fill:#ececec;stroke-width:0.20486343"
       id="rect3827-4-9-6-2-1-7"
       width="386.92749"
       height="10.720189"
       x="-86.303711"
       y="222.78702"
       inkscape:export-xdpi="300"
       inkscape:export-ydpi="300" />
    <rect
       style="fill:#fff6d5;stroke-width:0.20486346"
       id="rect3827-4-6-9-2"
       width="386.92749"
       height="10.720189"
       x="-86.303711"
       y="209.31189"
       inkscape:export-xdpi="300"
       inkscape:export-ydpi="300" />
    <rect
       style="fill:#ececec;stroke-width:0.20486343"
       id="rect3827-4-9-6-2-1"
       width="386.92749"
       height="10.720189"
       x="-86.338417"
       y="195.7697"
       inkscape:export-xdpi="300"
       inkscape:export-ydpi="300" />
    <rect
       style="fill:#fff6d5;stroke-width:0.20486346"
       id="rect3827-4-6-9"
       width="386.92749"
       height="10.720189"
       x="-86.303711"
       y="182.45108"
       inkscape:export-xdpi="300"
       inkscape:export-ydpi="300" />
    <rect
       style="fill:#ececec;stroke-width:0.20486343"
       id="rect3827-4-9-6-2"
       width="386.92749"
       height="10.720189"
       x="-86.303711"
       y="169.24063"
       inkscape:export-xdpi="300"
       inkscape:export-ydpi="300" />
    <text
       xml:space="preserve"
       style="font-style:normal;font-weight:normal;font-size:10.58333302px;line-height:1.25;font-family:sans-serif;letter-spacing:0px;word-spacing:0px;fill:#000000;fill-opacity:1;stroke:none;stroke-width:0.26458332"
       x="-66.766235"
       y="95.063599"
       id="text3789"><tspan
         sodipodi:role="line"
         id="tspan3787"
         x="-66.766235"
         y="104.42737"
         style="font-style:normal;font-variant:normal;font-weight:normal;font-stretch:normal;font-size:5.64444447px;font-family:Arial;-inkscape-font-specification:'Arial, Normal';font-variant-ligatures:normal;font-variant-caps:normal;font-variant-numeric:normal;font-feature-settings:normal;text-align:start;writing-mode:lr-tb;text-anchor:start;stroke-width:0.26458332" /><tspan
         sodipodi:role="line"
         x="-66.766235"
         y="117.65653"
         style="font-style:normal;font-variant:normal;font-weight:normal;font-stretch:normal;font-size:5.64444447px;font-family:Arial;-inkscape-font-specification:'Arial, Normal';font-variant-ligatures:normal;font-variant-caps:normal;font-variant-numeric:normal;font-feature-settings:normal;text-align:start;writing-mode:lr-tb;text-anchor:start;stroke-width:0.26458332"
         id="tspan3791" /><tspan
         sodipodi:role="line"
         x="-66.766235"
         y="130.8857"
         style="font-style:normal;font-variant:normal;font-weight:normal;font-stretch:normal;font-size:5.64444447px;font-family:Arial;-inkscape-font-specification:'Arial, Normal';font-variant-ligatures:normal;font-variant-caps:normal;font-variant-numeric:normal;font-feature-settings:normal;text-align:start;writing-mode:lr-tb;text-anchor:start;stroke-width:0.26458332"
         id="tspan3793" /><tspan
         sodipodi:role="line"
         x="-66.766235"
         y="144.11487"
         style="font-style:normal;font-variant:normal;font-weight:normal;font-stretch:normal;font-size:5.64444447px;font-family:Arial;-inkscape-font-specification:'Arial, Normal';font-variant-ligatures:normal;font-variant-caps:normal;font-variant-numeric:normal;font-feature-settings:normal;text-align:start;writing-mode:lr-tb;text-anchor:start;stroke-width:0.26458332"
         id="tspan3797" /><tspan
         sodipodi:role="line"
         x="-66.766235"
         y="157.34404"
         style="font-style:normal;font-variant:normal;font-weight:normal;font-stretch:normal;font-size:5.64444447px;font-family:Arial;-inkscape-font-specification:'Arial, Normal';font-variant-ligatures:normal;font-variant-caps:normal;font-variant-numeric:normal;font-feature-settings:normal;text-align:start;writing-mode:lr-tb;text-anchor:start;stroke-width:0.26458332"
         id="tspan3821" /><tspan
         sodipodi:role="line"
         x="-66.766235"
         y="170.5732"
         style="font-style:normal;font-variant:normal;font-weight:normal;font-stretch:normal;font-size:5.64444447px;font-family:Arial;-inkscape-font-specification:'Arial, Normal';font-variant-ligatures:normal;font-variant-caps:normal;font-variant-numeric:normal;font-feature-settings:normal;text-align:start;writing-mode:lr-tb;text-anchor:start;stroke-width:0.26458332"
         id="tspan3799" /><tspan
         sodipodi:role="line"
         x="-66.766235"
         y="183.80237"
         style="font-style:normal;font-variant:normal;font-weight:normal;font-stretch:normal;font-size:5.64444447px;font-family:Arial;-inkscape-font-specification:'Arial, Normal';font-variant-ligatures:normal;font-variant-caps:normal;font-variant-numeric:normal;font-feature-settings:normal;text-align:start;writing-mode:lr-tb;text-anchor:start;stroke-width:0.26458332"
         id="tspan3801" /><tspan
         sodipodi:role="line"
         x="-66.766235"
         y="197.03152"
         style="font-style:normal;font-variant:normal;font-weight:normal;font-stretch:normal;font-size:5.64444447px;font-family:Arial;-inkscape-font-specification:'Arial, Normal';font-variant-ligatures:normal;font-variant-caps:normal;font-variant-numeric:normal;font-feature-settings:normal;text-align:start;writing-mode:lr-tb;text-anchor:start;stroke-width:0.26458332"
         id="tspan3807" /><tspan
         sodipodi:role="line"
         x="-66.766235"
         y="210.2607"
         style="font-style:normal;font-variant:normal;font-weight:normal;font-stretch:normal;font-size:5.64444447px;font-family:Arial;-inkscape-font-specification:'Arial, Normal';font-variant-ligatures:normal;font-variant-caps:normal;font-variant-numeric:normal;font-feature-settings:normal;text-align:start;writing-mode:lr-tb;text-anchor:start;stroke-width:0.26458332"
         id="tspan3809" /><tspan
         sodipodi:role="line"
         x="-66.766235"
         y="223.48987"
         style="font-style:normal;font-variant:normal;font-weight:normal;font-stretch:normal;font-size:5.64444447px;font-family:Arial;-inkscape-font-specification:'Arial, Normal';font-variant-ligatures:normal;font-variant-caps:normal;font-variant-numeric:normal;font-feature-settings:normal;text-align:start;writing-mode:lr-tb;text-anchor:start;stroke-width:0.26458332"
         id="tspan3811" /><tspan
         sodipodi:role="line"
         x="-66.766235"
         y="236.71902"
         style="font-style:normal;font-variant:normal;font-weight:normal;font-stretch:normal;font-size:5.64444447px;font-family:Arial;-inkscape-font-specification:'Arial, Normal';font-variant-ligatures:normal;font-variant-caps:normal;font-variant-numeric:normal;font-feature-settings:normal;text-align:start;writing-mode:lr-tb;text-anchor:start;stroke-width:0.26458332"
         id="tspan3813" /><tspan
         sodipodi:role="line"
         x="-66.766235"
         y="249.9482"
         style="font-style:normal;font-variant:normal;font-weight:normal;font-stretch:normal;font-size:5.64444447px;font-family:Arial;-inkscape-font-specification:'Arial, Normal';font-variant-ligatures:normal;font-variant-caps:normal;font-variant-numeric:normal;font-feature-settings:normal;text-align:start;writing-mode:lr-tb;text-anchor:start;stroke-width:0.26458332"
         id="tspan3815" /><tspan
         sodipodi:role="line"
         x="-66.766235"
         y="263.17737"
         style="font-style:normal;font-variant:normal;font-weight:normal;font-stretch:normal;font-size:5.64444447px;font-family:Arial;-inkscape-font-specification:'Arial, Normal';font-variant-ligatures:normal;font-variant-caps:normal;font-variant-numeric:normal;font-feature-settings:normal;text-align:start;writing-mode:lr-tb;text-anchor:start;stroke-width:0.26458332"
         id="tspan3817" /></text>
    <text
       xml:space="preserve"
       style="font-style:normal;font-variant:normal;font-weight:normal;font-stretch:normal;font-size:5.64444447px;line-height:1.25;font-family:Arial;-inkscape-font-specification:'Arial, Normal';font-variant-ligatures:normal;font-variant-position:normal;font-variant-caps:normal;font-variant-numeric:normal;font-variant-alternates:normal;font-feature-settings:normal;text-indent:0;text-align:start;text-decoration:none;text-decoration-line:none;text-decoration-style:solid;text-decoration-color:#000000;letter-spacing:0px;word-spacing:0px;text-transform:none;writing-mode:lr-tb;direction:ltr;text-orientation:mixed;dominant-baseline:auto;baseline-shift:baseline;text-anchor:start;white-space:normal;shape-padding:0;opacity:1;vector-effect:none;fill:#000000;fill-opacity:1;stroke:none;stroke-width:0.26458332;stroke-linecap:butt;stroke-linejoin:miter;stroke-miterlimit:4;stroke-dasharray:none;stroke-dashoffset:0;stroke-opacity:1"
       x="58.162716"
       y="94.913078"
       id="text3831"><tspan
         sodipodi:role="line"
         id="tspan3829"
         x="58.162716"
         y="99.997337"
         style="font-style:normal;font-variant:normal;font-weight:normal;font-stretch:normal;font-size:5.64444447px;line-height:1.25;font-family:Arial;-inkscape-font-specification:'Arial, Normal';font-variant-ligatures:normal;font-variant-position:normal;font-variant-caps:normal;font-variant-numeric:normal;font-variant-alternates:normal;font-feature-settings:normal;text-indent:0;text-align:start;text-decoration:none;text-decoration-line:none;text-decoration-style:solid;text-decoration-color:#000000;letter-spacing:0px;word-spacing:0px;text-transform:none;writing-mode:lr-tb;direction:ltr;text-orientation:mixed;dominant-baseline:auto;baseline-shift:baseline;text-anchor:start;white-space:normal;shape-padding:0;vector-effect:none;fill:#000000;fill-opacity:1;stroke:none;stroke-width:0.26458332;stroke-linecap:butt;stroke-linejoin:miter;stroke-miterlimit:4;stroke-dasharray:none;stroke-dashoffset:0;stroke-opacity:1" /></text>
    <text
       xml:space="preserve"
       style="font-style:normal;font-weight:normal;font-size:10.58333302px;line-height:1.25;font-family:sans-serif;letter-spacing:0px;word-spacing:0px;fill:#000000;fill-opacity:1;stroke:none;stroke-width:0.26458332"
       x="108.79849"
       y="138.0219"
       id="text4122"><tspan
         sodipodi:role="line"
         x="108.79849"
         y="147.38567"
         style="stroke-width:0.26458332"
         id="tspan4124" /></text>
    <text
       xml:space="preserve"
       style="font-style:normal;font-weight:normal;font-size:10.58333302px;line-height:1.25;font-family:sans-serif;letter-spacing:0px;word-spacing:0px;fill:#000000;fill-opacity:1;stroke:none;stroke-width:0.26458332"
       x="-163.08369"
       y="48.382904"
       id="text4252"><tspan
         sodipodi:role="line"
         x="-163.08369"
         y="57.746674"
         style="stroke-width:0.26458332"
         id="tspan4270" /></text>
    <text
       xml:space="preserve"
       style="font-style:normal;font-weight:normal;font-size:10.58333302px;line-height:1.25;font-family:sans-serif;letter-spacing:0px;word-spacing:0px;fill:#000000;fill-opacity:1;stroke:none;stroke-width:0.26458332"
       x="137.94974"
       y="184.97179"
       id="text4015"><tspan
         sodipodi:role="line"
         x="137.94974"
         y="194.33556"
         style="font-style:normal;font-variant:normal;font-weight:normal;font-stretch:normal;font-size:5.29166651px;font-family:Arial;-inkscape-font-specification:'Arial, Normal';font-variant-ligatures:normal;font-variant-caps:normal;font-variant-numeric:normal;font-feature-settings:normal;text-align:center;writing-mode:lr-tb;text-anchor:middle;stroke-width:0.26458332"
         id="tspan4393" /></text>
    <rect
       style="opacity:1;vector-effect:none;fill:#cccccc;fill-opacity:0.05098039;stroke:none;stroke-width:0.26458332;stroke-linecap:butt;stroke-linejoin:miter;stroke-miterlimit:4;stroke-dasharray:none;stroke-dashoffset:0;stroke-opacity:1"
       id="rect4601"
       width="40.890152"
       height="26.458332"
       x="25.857008"
       y="4.7556815" />
    <flowRoot
       xml:space="preserve"
       id="flowRoot5410"
       style="font-style:normal;font-weight:normal;font-size:40px;line-height:1.25;font-family:sans-serif;letter-spacing:0px;word-spacing:0px;fill:#000000;fill-opacity:1;stroke:none"
       transform="scale(0.26458333)"><flowRegion
         id="flowRegion5412"><rect
           id="rect5414"
           width="156.57895"
           height="128.94737"
           x="-492.10526"
           y="268.57233" /></flowRegion><flowPara
         id="flowPara5416" /></flowRoot>    <text
       xml:space="preserve"
       style="font-style:normal;font-weight:normal;font-size:10.58333302px;line-height:1.25;font-family:sans-serif;letter-spacing:0px;word-spacing:0px;fill:#000000;fill-opacity:1;stroke:none;stroke-width:0.26458332"
       x="-49.542347"
       y="98.924614"
       id="text5485"><tspan
         sodipodi:role="line"
         x="-49.542347"
         y="108.28838"
         style="stroke-width:0.26458332"
         id="tspan5685" /></text>
    <rect
       style="fill:#ececec;stroke-width:0.20486344"
       id="rect3827-4-9-6"
       width="386.92749"
       height="10.720189"
       x="-86.303711"
       y="142.7592"
       inkscape:export-xdpi="300"
       inkscape:export-ydpi="300" />
    <flowRoot
       xml:space="preserve"
       id="flowRoot634"
       style="font-style:normal;font-weight:normal;font-size:40px;line-height:1.25;font-family:sans-serif;letter-spacing:0px;word-spacing:0px;fill:#000000;fill-opacity:1;stroke:none"
       transform="matrix(0.26458333,0,0,0.26458333,-0.29317517,37.691895)"><flowRegion
         id="flowRegion636"><rect
           id="rect638"
           width="58.41584"
           height="481.18811"
           x="-398.01981"
           y="795.78717" /></flowRegion><flowPara
         id="flowPara640"></flowPara></flowRoot>    <rect
       style="fill:#fff6d5;stroke-width:0.20486347"
       id="rect3827-4"
       width="386.92749"
       height="10.720189"
       x="-86.303711"
       y="129.39322"
       inkscape:export-xdpi="300"
       inkscape:export-ydpi="300" />
    <rect
       style="fill:#ececec;stroke-width:0.20486344"
       id="rect3827-4-9"
       width="386.92752"
       height="10.720189"
       x="-86.303711"
       y="116.11623"
       inkscape:export-xdpi="300"
       inkscape:export-ydpi="300" />
    <rect
       style="fill:#fff6d5;stroke-width:0.20486346"
       id="rect3827-4-6"
       width="386.92749"
       height="10.720189"
       x="-86.303711"
       y="155.62375"
       inkscape:export-xdpi="300"
       inkscape:export-ydpi="300" />
    <text
       xml:space="preserve"
       style="font-style:normal;font-weight:normal;font-size:10.58333302px;line-height:1.25;font-family:sans-serif;letter-spacing:0px;word-spacing:0px;fill:#000000;fill-opacity:1;stroke:none;stroke-width:0.26458332"
       x="-84.121559"
       y="123.28722"
       id="text465"
       inkscape:export-xdpi="300"
       inkscape:export-ydpi="300"><tspan
         sodipodi:role="line"
         id="tspan463"
         x="-84.121559"
         y="123.28722"
         style="font-style:normal;font-variant:normal;font-weight:normal;font-stretch:normal;font-size:4.58611107px;font-family:arial;-inkscape-font-specification:arial;stroke-width:0.26458332"
         dy="0">1. Allows proprietary derivatives</tspan><tspan
         sodipodi:role="line"
         x="-84.121559"
         y="136.51639"
         style="font-style:normal;font-variant:normal;font-weight:normal;font-stretch:normal;font-size:4.58611107px;font-family:arial;-inkscape-font-specification:arial;stroke-width:0.26458332"
         id="tspan467">2. Allows unmodified redistribution</tspan><tspan
         sodipodi:role="line"
         x="-84.121559"
         y="149.74554"
         style="font-style:normal;font-variant:normal;font-weight:normal;font-stretch:normal;font-size:4.58611107px;font-family:arial;-inkscape-font-specification:arial;stroke-width:0.26458332"
         id="tspan469">3. Allows redistribution under a different licence</tspan><tspan
         sodipodi:role="line"
         x="-84.121559"
         y="162.97472"
         style="font-style:normal;font-variant:normal;font-weight:normal;font-stretch:normal;font-size:4.58611107px;font-family:arial;-inkscape-font-specification:arial;stroke-width:0.26458332"
         id="tspan471">4. Allows changing the text of the licence</tspan><tspan
         sodipodi:role="line"
         x="-84.121559"
         y="176.20389"
         style="font-style:normal;font-variant:normal;font-weight:normal;font-stretch:normal;font-size:4.58611107px;font-family:arial;-inkscape-font-specification:arial;stroke-width:0.26458332"
         id="tspan473">5. Requires notifying changes</tspan><tspan
         sodipodi:role="line"
         x="-84.121559"
         y="189.43304"
         style="font-style:normal;font-variant:normal;font-weight:normal;font-stretch:normal;font-size:4.58611107px;font-family:arial;-inkscape-font-specification:arial;stroke-width:0.26458332"
         id="tspan475">6. Requires providing the location for the documentation</tspan><tspan
         sodipodi:role="line"
         x="-84.121559"
         y="202.66222"
         style="font-style:normal;font-variant:normal;font-weight:normal;font-stretch:normal;font-size:4.58611107px;font-family:arial;-inkscape-font-specification:arial;stroke-width:0.26458332"
         id="tspan477">7. Requires providing a copy of the licence</tspan><tspan
         sodipodi:role="line"
         x="-84.121559"
         y="215.89137"
         style="font-style:normal;font-variant:normal;font-weight:normal;font-stretch:normal;font-size:4.58611107px;font-family:arial;-inkscape-font-specification:arial;stroke-width:0.26458332"
         id="tspan479">8. Requires contacting upstream licensor when distributing modified documentation</tspan><tspan
         sodipodi:role="line"
         x="-84.121559"
         y="229.12054"
         style="font-style:normal;font-variant:normal;font-weight:normal;font-stretch:normal;font-size:4.58611107px;font-family:arial;-inkscape-font-specification:arial;stroke-width:0.26458332"
         id="tspan481">9. Requires contacting the upstream licensor when producing and distributing products </tspan><tspan
         sodipodi:role="line"
         x="-84.121559"
         y="242.34972"
         style="font-style:normal;font-variant:normal;font-weight:normal;font-stretch:normal;font-size:4.58611107px;font-family:arial;-inkscape-font-specification:arial;stroke-width:0.26458332"
         id="tspan483">10. Requires including the old files with the new, modified files in the documentation</tspan><tspan
         sodipodi:role="line"
         x="-84.121559"
         y="255.57887"
         style="font-style:normal;font-variant:normal;font-weight:normal;font-stretch:normal;font-size:4.58611107px;font-family:arial;-inkscape-font-specification:arial;stroke-width:0.26458332"
         id="tspan485">11. Requires copyright notice to be kept in documentation files</tspan><tspan
         sodipodi:role="line"
         x="-84.121559"
         y="268.80804"
         style="font-style:normal;font-variant:normal;font-weight:normal;font-stretch:normal;font-size:4.58611107px;font-family:arial;-inkscape-font-specification:arial;stroke-width:0.26458332"
         id="tspan487">12. Requires copyright notice to be kept on products</tspan><tspan
         sodipodi:role="line"
         x="-84.121559"
         y="282.0372"
         style="font-style:normal;font-variant:normal;font-weight:normal;font-stretch:normal;font-size:4.58611107px;font-family:arial;-inkscape-font-specification:arial;stroke-width:0.26458332"
         id="tspan489">13. Grants non-exclusive patent licence</tspan><tspan
         sodipodi:role="line"
         x="-84.121559"
         y="295.26639"
         style="font-style:normal;font-variant:normal;font-weight:normal;font-stretch:normal;font-size:4.58611107px;font-family:arial;-inkscape-font-specification:arial;stroke-width:0.26458332"
         id="tspan491">14. Extends patent litigation immunity to owners of OH-based products</tspan><tspan
         sodipodi:role="line"
         x="-84.121559"
         y="308.49554"
         style="font-style:normal;font-variant:normal;font-weight:normal;font-stretch:normal;font-size:4.58611107px;font-family:arial;-inkscape-font-specification:arial;stroke-width:0.26458332"
         id="tspan493">15. Includes patent retaliation clause in event of litigation</tspan><tspan
         sodipodi:role="line"
         x="-84.121559"
         y="321.7247"
         style="font-style:normal;font-variant:normal;font-weight:normal;font-stretch:normal;font-size:4.58611107px;font-family:arial;-inkscape-font-specification:arial;stroke-width:0.26458332"
         id="tspan495">16. Includes grace period for bringing the infringing party into compliance</tspan><tspan
         sodipodi:role="line"
         x="-84.121559"
         y="334.95389"
         style="font-style:normal;font-variant:normal;font-weight:normal;font-stretch:normal;font-size:4.58611107px;font-family:arial;-inkscape-font-specification:arial;stroke-width:0.26458332"
         id="tspan497">17. Grants trademark licence</tspan><tspan
         sodipodi:role="line"
         x="-84.121559"
         y="348.18304"
         style="font-style:normal;font-variant:normal;font-weight:normal;font-stretch:normal;font-size:4.58611107px;font-family:arial;-inkscape-font-specification:arial;stroke-width:0.26458332"
         id="tspan499">18. Provides no warranty or guarantee of fitness for any use or purpose</tspan><tspan
         sodipodi:role="line"
         x="-84.121559"
         y="361.4122"
         style="font-style:normal;font-variant:normal;font-weight:normal;font-stretch:normal;font-size:4.58611107px;font-family:arial;-inkscape-font-specification:arial;stroke-width:0.26458332"
         id="tspan501" /></text>
    <text
       xml:space="preserve"
       style="font-style:normal;font-weight:normal;font-size:10.58333302px;line-height:1.25;font-family:sans-serif;letter-spacing:0px;word-spacing:0px;fill:#000000;fill-opacity:1;stroke:none;stroke-width:0.26458332"
       x="98.692444"
       y="109.69131"
       id="text505"
       inkscape:export-xdpi="300"
       inkscape:export-ydpi="300"><tspan
         sodipodi:role="line"
         id="tspan503"
         x="98.692444"
         y="109.69131"
         style="font-style:normal;font-variant:normal;font-weight:bold;font-stretch:normal;font-size:4.58611107px;font-family:arial;-inkscape-font-specification:arial;stroke-width:0.26458332">TAPR OHL (v.1.0)</tspan><tspan
         sodipodi:role="line"
         x="98.692444"
         y="122.92047"
         style="font-style:normal;font-variant:normal;font-weight:normal;font-stretch:normal;font-size:4.58611107px;font-family:arial;-inkscape-font-specification:arial;stroke-width:0.26458332"
         id="tspan507">No</tspan><tspan
         sodipodi:role="line"
         x="98.692444"
         y="136.14964"
         style="font-style:normal;font-variant:normal;font-weight:bold;font-stretch:normal;font-size:4.58611107px;font-family:arial;-inkscape-font-specification:arial;stroke-width:0.26458332"
         id="tspan509">Yes</tspan><tspan
         sodipodi:role="line"
         x="98.692444"
         y="149.3788"
         style="font-style:normal;font-variant:normal;font-weight:normal;font-stretch:normal;font-size:4.58611107px;font-family:arial;-inkscape-font-specification:arial;stroke-width:0.26458332"
         id="tspan511">No</tspan><tspan
         sodipodi:role="line"
         x="98.692444"
         y="162.60797"
         style="font-style:normal;font-variant:normal;font-weight:normal;font-stretch:normal;font-size:4.58611107px;font-family:arial;-inkscape-font-specification:arial;stroke-width:0.26458332"
         id="tspan513">No</tspan><tspan
         sodipodi:role="line"
         x="98.692444"
         y="175.83714"
         style="font-style:normal;font-variant:normal;font-weight:bold;font-stretch:normal;font-size:4.58611107px;font-family:arial;-inkscape-font-specification:arial;stroke-width:0.26458332"
         id="tspan515">Yes</tspan><tspan
         sodipodi:role="line"
         x="98.692444"
         y="189.0663"
         style="font-style:normal;font-variant:normal;font-weight:bold;font-stretch:normal;font-size:4.58611107px;font-family:arial;-inkscape-font-specification:arial;stroke-width:0.26458332"
         id="tspan517">Yes</tspan><tspan
         sodipodi:role="line"
         x="98.692444"
         y="202.29547"
         style="font-style:normal;font-variant:normal;font-weight:bold;font-stretch:normal;font-size:4.58611107px;font-family:arial;-inkscape-font-specification:arial;stroke-width:0.26458332"
         id="tspan519">Yes</tspan><tspan
         sodipodi:role="line"
         x="98.692444"
         y="215.52464"
         style="font-style:italic;font-variant:normal;font-weight:normal;font-stretch:normal;font-size:4.58611107px;font-family:arial;-inkscape-font-specification:arial;stroke-width:0.26458332"
         id="tspan521">Best effort attempt</tspan><tspan
         sodipodi:role="line"
         x="98.692444"
         y="228.7538"
         style="font-style:italic;font-variant:normal;font-weight:normal;font-stretch:normal;font-size:4.58611107px;font-family:arial;-inkscape-font-specification:arial;stroke-width:0.26458332"
         id="tspan523">Best effort attempt</tspan><tspan
         sodipodi:role="line"
         x="98.692444"
         y="241.98297"
         style="font-style:normal;font-variant:normal;font-weight:bold;font-stretch:normal;font-size:4.58611107px;font-family:arial;-inkscape-font-specification:arial;stroke-width:0.26458332"
         id="tspan525">Yes</tspan><tspan
         sodipodi:role="line"
         x="98.692444"
         y="255.21214"
         style="font-style:normal;font-variant:normal;font-weight:bold;font-stretch:normal;font-size:4.58611107px;font-family:arial;-inkscape-font-specification:arial;stroke-width:0.26458332"
         id="tspan527">Yes</tspan><tspan
         sodipodi:role="line"
         x="98.692444"
         y="268.44131"
         style="font-style:normal;font-variant:normal;font-weight:bold;font-stretch:normal;font-size:4.58611107px;font-family:arial;-inkscape-font-specification:arial;stroke-width:0.26458332"
         id="tspan529">Yes</tspan><tspan
         sodipodi:role="line"
         x="98.692444"
         y="281.67047"
         style="font-style:normal;font-variant:normal;font-weight:bold;font-stretch:normal;font-size:4.58611107px;font-family:arial;-inkscape-font-specification:arial;stroke-width:0.26458332"
         id="tspan531">Yes</tspan><tspan
         sodipodi:role="line"
         x="98.692444"
         y="294.89963"
         style="font-style:normal;font-variant:normal;font-weight:bold;font-stretch:normal;font-size:4.58611107px;font-family:arial;-inkscape-font-specification:arial;stroke-width:0.26458332"
         id="tspan533">Yes</tspan><tspan
         sodipodi:role="line"
         x="98.692444"
         y="308.12881"
         style="font-style:normal;font-variant:normal;font-weight:normal;font-stretch:normal;font-size:4.58611107px;font-family:arial;-inkscape-font-specification:arial;stroke-width:0.26458332"
         id="tspan535">No</tspan><tspan
         sodipodi:role="line"
         x="98.692444"
         y="321.35797"
         style="font-style:normal;font-variant:normal;font-weight:normal;font-stretch:normal;font-size:4.58611107px;font-family:arial;-inkscape-font-specification:arial;stroke-width:0.26458332"
         id="tspan537">No</tspan><tspan
         sodipodi:role="line"
         x="98.692444"
         y="334.58713"
         style="font-style:normal;font-variant:normal;font-weight:normal;font-stretch:normal;font-size:4.58611107px;font-family:arial;-inkscape-font-specification:arial;stroke-width:0.26458332"
         id="tspan539">No</tspan><tspan
         sodipodi:role="line"
         x="98.692444"
         y="347.81631"
         style="font-style:normal;font-variant:normal;font-weight:normal;font-stretch:normal;font-size:4.58611107px;font-family:arial;-inkscape-font-specification:arial;stroke-width:0.26458332"
         id="tspan541"><tspan
   style="font-weight:bold"
   id="tspan819">Yes</tspan>, but with one exception</tspan><tspan
         sodipodi:role="line"
         x="98.692444"
         y="361.04547"
         style="font-style:normal;font-variant:normal;font-weight:normal;font-stretch:normal;font-size:4.58611107px;font-family:arial;-inkscape-font-specification:arial;stroke-width:0.26458332"
         id="tspan543" /></text>
    <text
       xml:space="preserve"
       style="font-style:normal;font-weight:normal;font-size:10.58333302px;line-height:1.25;font-family:sans-serif;letter-spacing:0px;word-spacing:0px;fill:#000000;fill-opacity:1;stroke:none;stroke-width:0.26458332"
       x="161.04507"
       y="109.65987"
       id="text592"
       inkscape:export-xdpi="300"
       inkscape:export-ydpi="300"><tspan
         sodipodi:role="line"
         x="161.04507"
         y="109.65987"
         style="font-style:normal;font-variant:normal;font-weight:bold;font-stretch:normal;font-size:4.58611107px;font-family:arial;-inkscape-font-specification:arial;stroke-width:0.26458332"
         id="tspan594">CERN OHL (v.1.2)</tspan><tspan
         sodipodi:role="line"
         x="161.04507"
         y="122.88903"
         style="font-style:normal;font-variant:normal;font-weight:normal;font-stretch:normal;font-size:4.58611107px;font-family:arial;-inkscape-font-specification:arial;stroke-width:0.26458332"
         id="tspan596">No</tspan><tspan
         sodipodi:role="line"
         x="161.04507"
         y="136.11819"
         style="font-style:normal;font-variant:normal;font-weight:bold;font-stretch:normal;font-size:4.58611107px;font-family:arial;-inkscape-font-specification:arial;stroke-width:0.26458332"
         id="tspan598">Yes</tspan><tspan
         sodipodi:role="line"
         x="161.04507"
         y="149.34737"
         style="font-style:normal;font-variant:normal;font-weight:normal;font-stretch:normal;font-size:4.58611107px;font-family:arial;-inkscape-font-specification:arial;stroke-width:0.26458332"
         id="tspan600">No</tspan><tspan
         sodipodi:role="line"
         x="161.04507"
         y="162.57654"
         style="font-style:normal;font-variant:normal;font-weight:normal;font-stretch:normal;font-size:4.58611107px;font-family:arial;-inkscape-font-specification:arial;stroke-width:0.26458332"
         id="tspan602">No</tspan><tspan
         sodipodi:role="line"
         x="161.04507"
         y="175.80569"
         style="font-style:normal;font-variant:normal;font-weight:bold;font-stretch:normal;font-size:4.58611107px;font-family:arial;-inkscape-font-specification:arial;stroke-width:0.26458332"
         id="tspan604">Yes</tspan><tspan
         sodipodi:role="line"
         x="161.04507"
         y="189.03487"
         style="font-style:normal;font-variant:normal;font-weight:bold;font-stretch:normal;font-size:4.58611107px;font-family:arial;-inkscape-font-specification:arial;stroke-width:0.26458332"
         id="tspan606">Yes</tspan><tspan
         sodipodi:role="line"
         x="161.04507"
         y="202.26402"
         style="font-style:normal;font-variant:normal;font-weight:bold;font-stretch:normal;font-size:4.58611107px;font-family:arial;-inkscape-font-specification:arial;stroke-width:0.26458332"
         id="tspan608">Yes</tspan><tspan
         sodipodi:role="line"
         x="161.04507"
         y="215.49319"
         style="font-style:normal;font-variant:normal;font-weight:normal;font-stretch:normal;font-size:4.58611107px;font-family:arial;-inkscape-font-specification:arial;stroke-width:0.26458332"
         id="tspan610">No</tspan><tspan
         sodipodi:role="line"
         x="161.04507"
         y="228.72237"
         style="font-style:italic;font-variant:normal;font-weight:normal;font-stretch:normal;font-size:4.58611107px;font-family:arial;-inkscape-font-specification:arial;stroke-width:0.26458332"
         id="tspan612">Optional</tspan><tspan
         sodipodi:role="line"
         x="161.04507"
         y="241.95152"
         style="font-style:normal;font-variant:normal;font-weight:normal;font-stretch:normal;font-size:4.58611107px;font-family:arial;-inkscape-font-specification:arial;stroke-width:0.26458332"
         id="tspan614">No</tspan><tspan
         sodipodi:role="line"
         x="161.04507"
         y="255.18069"
         style="font-style:normal;font-variant:normal;font-weight:bold;font-stretch:normal;font-size:4.58611107px;font-family:arial;-inkscape-font-specification:arial;stroke-width:0.26458332"
         id="tspan616">Yes</tspan><tspan
         sodipodi:role="line"
         x="161.04507"
         y="268.40985"
         style="font-style:normal;font-variant:normal;font-weight:bold;font-stretch:normal;font-size:4.58611107px;font-family:arial;-inkscape-font-specification:arial;stroke-width:0.26458332"
         id="tspan618">Yes</tspan><tspan
         sodipodi:role="line"
         x="161.04507"
         y="281.63904"
         style="font-style:normal;font-variant:normal;font-weight:bold;font-stretch:normal;font-size:4.58611107px;font-family:arial;-inkscape-font-specification:arial;stroke-width:0.26458332"
         id="tspan620">Yes</tspan><tspan
         sodipodi:role="line"
         x="161.04507"
         y="294.86819"
         style="font-style:normal;font-variant:normal;font-weight:normal;font-stretch:normal;font-size:4.58611107px;font-family:arial;-inkscape-font-specification:arial;stroke-width:0.26458332"
         id="tspan622">No</tspan><tspan
         sodipodi:role="line"
         x="161.04507"
         y="308.09735"
         style="font-style:normal;font-variant:normal;font-weight:normal;font-stretch:normal;font-size:4.58611107px;font-family:arial;-inkscape-font-specification:arial;stroke-width:0.26458332"
         id="tspan624">No</tspan><tspan
         sodipodi:role="line"
         x="161.04507"
         y="321.32654"
         style="font-style:normal;font-variant:normal;font-weight:normal;font-stretch:normal;font-size:4.58611107px;font-family:arial;-inkscape-font-specification:arial;stroke-width:0.26458332"
         id="tspan626">No</tspan><tspan
         sodipodi:role="line"
         x="161.04507"
         y="334.55569"
         style="font-style:normal;font-variant:normal;font-weight:normal;font-stretch:normal;font-size:4.58611107px;font-family:arial;-inkscape-font-specification:arial;stroke-width:0.26458332"
         id="tspan628">No</tspan><tspan
         sodipodi:role="line"
         x="161.04507"
         y="347.78485"
         style="font-style:normal;font-variant:normal;font-weight:bold;font-stretch:normal;font-size:4.58611107px;font-family:arial;-inkscape-font-specification:arial;stroke-width:0.26458332"
         id="tspan630">Yes</tspan><tspan
         sodipodi:role="line"
         x="161.04507"
         y="361.01404"
         style="font-style:normal;font-variant:normal;font-weight:normal;font-stretch:normal;font-size:4.58611107px;font-family:arial;-inkscape-font-specification:arial;stroke-width:0.26458332"
         id="tspan632" /></text>
    <text
       xml:space="preserve"
       style="font-style:normal;font-weight:normal;font-size:10.58333302px;line-height:1.25;font-family:sans-serif;letter-spacing:0px;word-spacing:0px;fill:#000000;fill-opacity:1;stroke:none;stroke-width:0.26458332"
       x="213.16537"
       y="109.63892"
       id="text661"
       inkscape:export-xdpi="300"
       inkscape:export-ydpi="300"><tspan
         sodipodi:role="line"
         x="213.16537"
         y="109.63892"
         style="font-style:normal;font-variant:normal;font-weight:bold;font-stretch:normal;font-size:4.58611107px;font-family:arial;-inkscape-font-specification:arial;stroke-width:0.26458332"
         id="tspan663">TDPL (v. 1.2)</tspan><tspan
         sodipodi:role="line"
         x="213.16537"
         y="122.86809"
         style="font-style:normal;font-variant:normal;font-weight:normal;font-stretch:normal;font-size:4.58611107px;font-family:arial;-inkscape-font-specification:arial;stroke-width:0.26458332"
         id="tspan665">No</tspan><tspan
         sodipodi:role="line"
         x="213.16537"
         y="136.09726"
         style="font-style:normal;font-variant:normal;font-weight:bold;font-stretch:normal;font-size:4.58611107px;font-family:arial;-inkscape-font-specification:arial;stroke-width:0.26458332"
         id="tspan667">Yes</tspan><tspan
         sodipodi:role="line"
         x="213.16537"
         y="149.32642"
         style="font-style:normal;font-variant:normal;font-weight:normal;font-stretch:normal;font-size:4.58611107px;font-family:arial;-inkscape-font-specification:arial;stroke-width:0.26458332"
         id="tspan669">No</tspan><tspan
         sodipodi:role="line"
         x="213.16537"
         y="162.55559"
         style="font-style:normal;font-variant:normal;font-weight:normal;font-stretch:normal;font-size:4.58611107px;font-family:arial;-inkscape-font-specification:arial;stroke-width:0.26458332"
         id="tspan671">No</tspan><tspan
         sodipodi:role="line"
         x="213.16537"
         y="175.78476"
         style="font-style:normal;font-variant:normal;font-weight:bold;font-stretch:normal;font-size:4.58611107px;font-family:arial;-inkscape-font-specification:arial;stroke-width:0.26458332"
         id="tspan673">Yes</tspan><tspan
         sodipodi:role="line"
         x="213.16537"
         y="189.01392"
         style="font-style:normal;font-variant:normal;font-weight:bold;font-stretch:normal;font-size:4.58611107px;font-family:arial;-inkscape-font-specification:arial;stroke-width:0.26458332"
         id="tspan675">Yes</tspan><tspan
         sodipodi:role="line"
         x="213.16537"
         y="202.24309"
         style="font-style:normal;font-variant:normal;font-weight:bold;font-stretch:normal;font-size:4.58611107px;font-family:arial;-inkscape-font-specification:arial;stroke-width:0.26458332"
         id="tspan677">Yes</tspan><tspan
         sodipodi:role="line"
         x="213.16537"
         y="215.47226"
         style="font-style:normal;font-variant:normal;font-weight:normal;font-stretch:normal;font-size:4.58611107px;font-family:arial;-inkscape-font-specification:arial;stroke-width:0.26458332"
         id="tspan679">No</tspan><tspan
         sodipodi:role="line"
         x="213.16537"
         y="228.70142"
         style="font-style:normal;font-variant:normal;font-weight:normal;font-stretch:normal;font-size:4.58611107px;font-family:arial;-inkscape-font-specification:arial;stroke-width:0.26458332"
         id="tspan681">No</tspan><tspan
         sodipodi:role="line"
         x="213.16537"
         y="241.93059"
         style="font-style:normal;font-variant:normal;font-weight:normal;font-stretch:normal;font-size:4.58611107px;font-family:arial;-inkscape-font-specification:arial;stroke-width:0.26458332"
         id="tspan683">No</tspan><tspan
         sodipodi:role="line"
         x="213.16537"
         y="255.15976"
         style="font-style:normal;font-variant:normal;font-weight:bold;font-stretch:normal;font-size:4.58611107px;font-family:arial;-inkscape-font-specification:arial;stroke-width:0.26458332"
         id="tspan685">Yes</tspan><tspan
         sodipodi:role="line"
         x="213.16537"
         y="268.38892"
         style="font-style:normal;font-variant:normal;font-weight:bold;font-stretch:normal;font-size:4.58611107px;font-family:arial;-inkscape-font-specification:arial;stroke-width:0.26458332"
         id="tspan687">Yes</tspan><tspan
         sodipodi:role="line"
         x="213.16537"
         y="281.61807"
         style="font-style:normal;font-variant:normal;font-weight:bold;font-stretch:normal;font-size:4.58611107px;font-family:arial;-inkscape-font-specification:arial;stroke-width:0.26458332"
         id="tspan689">Yes</tspan><tspan
         sodipodi:role="line"
         x="213.16537"
         y="294.84726"
         style="font-style:normal;font-variant:normal;font-weight:bold;font-stretch:normal;font-size:4.58611107px;font-family:arial;-inkscape-font-specification:arial;stroke-width:0.26458332"
         id="tspan691">Yes</tspan><tspan
         sodipodi:role="line"
         x="213.16537"
         y="308.07642"
         style="font-style:normal;font-variant:normal;font-weight:normal;font-stretch:normal;font-size:4.58611107px;font-family:arial;-inkscape-font-specification:arial;stroke-width:0.26458332"
         id="tspan693">No</tspan><tspan
         sodipodi:role="line"
         x="213.16537"
         y="321.30557"
         style="font-style:normal;font-variant:normal;font-weight:normal;font-stretch:normal;font-size:4.58611107px;font-family:arial;-inkscape-font-specification:arial;stroke-width:0.26458332"
         id="tspan695">No</tspan><tspan
         sodipodi:role="line"
         x="213.16537"
         y="334.53476"
         style="font-style:normal;font-variant:normal;font-weight:normal;font-stretch:normal;font-size:4.58611107px;font-family:arial;-inkscape-font-specification:arial;stroke-width:0.26458332"
         id="tspan697">No</tspan><tspan
         sodipodi:role="line"
         x="213.16537"
         y="347.76392"
         style="font-style:normal;font-variant:normal;font-weight:bold;font-stretch:normal;font-size:4.58611107px;font-family:arial;-inkscape-font-specification:arial;stroke-width:0.26458332"
         id="tspan699">Yes</tspan><tspan
         sodipodi:role="line"
         x="213.16537"
         y="360.99307"
         style="font-style:normal;font-variant:normal;font-weight:normal;font-stretch:normal;font-size:4.58611107px;font-family:arial;-inkscape-font-specification:arial;stroke-width:0.26458332"
         id="tspan701" /></text>
    <text
       xml:space="preserve"
       style="font-style:normal;font-weight:normal;font-size:10.58333302px;line-height:1.25;font-family:sans-serif;letter-spacing:0px;word-spacing:0px;fill:#000000;fill-opacity:1;stroke:none;stroke-width:0.26458332"
       x="255.12665"
       y="109.66513"
       id="text737"
       inkscape:export-xdpi="300"
       inkscape:export-ydpi="300"><tspan
         sodipodi:role="line"
         x="255.12665"
         y="109.66513"
         style="font-style:normal;font-variant:normal;font-weight:bold;font-stretch:normal;font-size:4.58611107px;font-family:arial;-inkscape-font-specification:arial;stroke-width:0.26458332"
         id="tspan739">Solderpad (v. 2.0)</tspan><tspan
         sodipodi:role="line"
         x="255.12665"
         y="122.89429"
         style="font-style:normal;font-variant:normal;font-weight:bold;font-stretch:normal;font-size:4.58611107px;font-family:arial;-inkscape-font-specification:arial;stroke-width:0.26458332"
         id="tspan741">Yes</tspan><tspan
         sodipodi:role="line"
         x="255.12665"
         y="136.12346"
         style="font-style:normal;font-variant:normal;font-weight:bold;font-stretch:normal;font-size:4.58611107px;font-family:arial;-inkscape-font-specification:arial;stroke-width:0.26458332"
         id="tspan743">Yes</tspan><tspan
         sodipodi:role="line"
         x="255.12665"
         y="149.35263"
         style="font-style:normal;font-variant:normal;font-weight:bold;font-stretch:normal;font-size:4.58611107px;font-family:arial;-inkscape-font-specification:arial;stroke-width:0.26458332"
         id="tspan745">Yes</tspan><tspan
         sodipodi:role="line"
         x="255.12665"
         y="162.5818"
         style="font-style:normal;font-variant:normal;font-weight:bold;font-stretch:normal;font-size:4.58611107px;font-family:arial;-inkscape-font-specification:arial;stroke-width:0.26458332"
         id="tspan747">Yes</tspan><tspan
         sodipodi:role="line"
         x="255.12665"
         y="175.81096"
         style="font-style:normal;font-variant:normal;font-weight:bold;font-stretch:normal;font-size:4.58611107px;font-family:arial;-inkscape-font-specification:arial;stroke-width:0.26458332"
         id="tspan749">Yes</tspan><tspan
         sodipodi:role="line"
         x="255.12665"
         y="189.04013"
         style="font-style:normal;font-variant:normal;font-weight:bold;font-stretch:normal;font-size:4.58611107px;font-family:arial;-inkscape-font-specification:arial;stroke-width:0.26458332"
         id="tspan751">Yes</tspan><tspan
         sodipodi:role="line"
         x="255.12665"
         y="202.26929"
         style="font-style:normal;font-variant:normal;font-weight:bold;font-stretch:normal;font-size:4.58611107px;font-family:arial;-inkscape-font-specification:arial;stroke-width:0.26458332"
         id="tspan753">Yes</tspan><tspan
         sodipodi:role="line"
         x="255.12665"
         y="215.49846"
         style="font-style:normal;font-variant:normal;font-weight:normal;font-stretch:normal;font-size:4.58611107px;font-family:arial;-inkscape-font-specification:arial;stroke-width:0.26458332"
         id="tspan755">No</tspan><tspan
         sodipodi:role="line"
         x="255.12665"
         y="228.72763"
         style="font-style:normal;font-variant:normal;font-weight:normal;font-stretch:normal;font-size:4.58611107px;font-family:arial;-inkscape-font-specification:arial;stroke-width:0.26458332"
         id="tspan757">No</tspan><tspan
         sodipodi:role="line"
         x="255.12665"
         y="241.95679"
         style="font-style:normal;font-variant:normal;font-weight:normal;font-stretch:normal;font-size:4.58611107px;font-family:arial;-inkscape-font-specification:arial;stroke-width:0.26458332"
         id="tspan759">No                                                        </tspan><tspan
         sodipodi:role="line"
         x="255.12665"
         y="255.18596"
         style="font-style:normal;font-variant:normal;font-weight:bold;font-stretch:normal;font-size:4.58611107px;font-family:arial;-inkscape-font-specification:arial;stroke-width:0.26458332"
         id="tspan761">Yes</tspan><tspan
         sodipodi:role="line"
         x="255.12665"
         y="268.41513"
         style="font-style:normal;font-variant:normal;font-weight:normal;font-stretch:normal;font-size:4.58611107px;font-family:arial;-inkscape-font-specification:arial;stroke-width:0.26458332"
         id="tspan763">No</tspan><tspan
         sodipodi:role="line"
         x="255.12665"
         y="281.64429"
         style="font-style:normal;font-variant:normal;font-weight:bold;font-stretch:normal;font-size:4.58611107px;font-family:arial;-inkscape-font-specification:arial;stroke-width:0.26458332"
         id="tspan765">Yes</tspan><tspan
         sodipodi:role="line"
         x="255.12665"
         y="294.87344"
         style="font-style:normal;font-variant:normal;font-weight:normal;font-stretch:normal;font-size:4.58611107px;font-family:arial;-inkscape-font-specification:arial;stroke-width:0.26458332"
         id="tspan767">No</tspan><tspan
         sodipodi:role="line"
         x="255.12665"
         y="308.10263"
         style="font-style:normal;font-variant:normal;font-weight:bold;font-stretch:normal;font-size:4.58611107px;font-family:arial;-inkscape-font-specification:arial;stroke-width:0.26458332"
         id="tspan769">Yes</tspan><tspan
         sodipodi:role="line"
         x="255.12665"
         y="321.33179"
         style="font-style:normal;font-variant:normal;font-weight:normal;font-stretch:normal;font-size:4.58611107px;font-family:arial;-inkscape-font-specification:arial;stroke-width:0.26458332"
         id="tspan771">No</tspan><tspan
         sodipodi:role="line"
         x="255.12665"
         y="334.56094"
         style="font-style:normal;font-variant:normal;font-weight:normal;font-stretch:normal;font-size:4.58611107px;font-family:arial;-inkscape-font-specification:arial;stroke-width:0.26458332"
         id="tspan773">No</tspan><tspan
         sodipodi:role="line"
         x="255.12665"
         y="347.79013"
         style="font-style:normal;font-variant:normal;font-weight:bold;font-stretch:normal;font-size:4.58611107px;font-family:arial;-inkscape-font-specification:arial;stroke-width:0.26458332"
         id="tspan775">Yes</tspan><tspan
         sodipodi:role="line"
         x="255.12665"
         y="361.01929"
         style="font-style:normal;font-variant:normal;font-weight:normal;font-stretch:normal;font-size:4.58611107px;font-family:arial;-inkscape-font-specification:arial;stroke-width:0.26458332"
         id="tspan777" /></text>
    <rect
       style="opacity:1;vector-effect:none;fill:#e6e6e6;fill-opacity:0.05098039;stroke:#000000;stroke-width:0.80690873;stroke-linecap:butt;stroke-linejoin:miter;stroke-miterlimit:4;stroke-dasharray:none;stroke-dashoffset:0;stroke-opacity:1"
       id="rect4603"
       width="386.81528"
       height="279.47095"
       x="-86.191505"
       y="80.878357"
       inkscape:export-xdpi="300"
       inkscape:export-ydpi="300" />
  </g>
</svg>
